%YAML 1.1
%TAG !u! tag:unity3d.com,2011:
--- !u!1 &1275473636330352855
GameObject:
  m_ObjectHideFlags: 0
  m_CorrespondingSourceObject: {fileID: 0}
  m_PrefabInstance: {fileID: 0}
  m_PrefabAsset: {fileID: 0}
  serializedVersion: 6
  m_Component:
  - component: {fileID: 5104972567095809582}
  - component: {fileID: 6135119075181427450}
  m_Layer: 0
  m_Name: roundCactusWrapper
  m_TagString: Untagged
  m_Icon: {fileID: 0}
  m_NavMeshLayer: 0
  m_StaticEditorFlags: 0
  m_IsActive: 1
--- !u!4 &5104972567095809582
Transform:
  m_ObjectHideFlags: 0
  m_CorrespondingSourceObject: {fileID: 0}
  m_PrefabInstance: {fileID: 0}
  m_PrefabAsset: {fileID: 0}
  m_GameObject: {fileID: 1275473636330352855}
  serializedVersion: 2
  m_LocalRotation: {x: 0, y: 0, z: 0, w: 1}
  m_LocalPosition: {x: 0, y: 0, z: 0}
  m_LocalScale: {x: 1, y: 1, z: 1}
  m_ConstrainProportionsScale: 0
  m_Children:
  - {fileID: 5102665896210596778}
  m_Father: {fileID: 0}
  m_LocalEulerAnglesHint: {x: 0, y: 0, z: 0}
--- !u!136 &6135119075181427450
CapsuleCollider:
  m_ObjectHideFlags: 0
  m_CorrespondingSourceObject: {fileID: 0}
  m_PrefabInstance: {fileID: 0}
  m_PrefabAsset: {fileID: 0}
  m_GameObject: {fileID: 1275473636330352855}
  m_Material: {fileID: 0}
  m_IncludeLayers:
    serializedVersion: 2
    m_Bits: 0
  m_ExcludeLayers:
    serializedVersion: 2
    m_Bits: 0
  m_LayerOverridePriority: 0
  m_IsTrigger: 0
  m_ProvidesContacts: 0
  m_Enabled: 1
  serializedVersion: 2
  m_Radius: 4
  m_Height: 61.7
  m_Direction: 1
  m_Center: {x: 0, y: 3.03, z: 0}
--- !u!1001 &4709347826086143041
PrefabInstance:
  m_ObjectHideFlags: 0
  serializedVersion: 2
  m_Modification:
    serializedVersion: 3
    m_TransformParent: {fileID: 5104972567095809582}
    m_Modifications:
    - target: {fileID: -8679921383154817045, guid: 6c8896ee583b8fa41820cfb7ea943ce7,
        type: 3}
      propertyPath: m_LocalScale.x
      value: 600
      objectReference: {fileID: 0}
    - target: {fileID: -8679921383154817045, guid: 6c8896ee583b8fa41820cfb7ea943ce7,
        type: 3}
      propertyPath: m_LocalScale.y
      value: 600
      objectReference: {fileID: 0}
    - target: {fileID: -8679921383154817045, guid: 6c8896ee583b8fa41820cfb7ea943ce7,
        type: 3}
      propertyPath: m_LocalScale.z
      value: 600
      objectReference: {fileID: 0}
    - target: {fileID: -8679921383154817045, guid: 6c8896ee583b8fa41820cfb7ea943ce7,
        type: 3}
      propertyPath: m_LocalPosition.x
      value: -0
      objectReference: {fileID: 0}
    - target: {fileID: -8679921383154817045, guid: 6c8896ee583b8fa41820cfb7ea943ce7,
        type: 3}
      propertyPath: m_LocalPosition.y
      value: -1
      objectReference: {fileID: 0}
    - target: {fileID: -8679921383154817045, guid: 6c8896ee583b8fa41820cfb7ea943ce7,
        type: 3}
      propertyPath: m_LocalPosition.z
      value: 0
      objectReference: {fileID: 0}
    - target: {fileID: -8679921383154817045, guid: 6c8896ee583b8fa41820cfb7ea943ce7,
        type: 3}
      propertyPath: m_LocalRotation.w
      value: 0.7071068
      objectReference: {fileID: 0}
    - target: {fileID: -8679921383154817045, guid: 6c8896ee583b8fa41820cfb7ea943ce7,
        type: 3}
      propertyPath: m_LocalRotation.x
      value: -0.7071068
      objectReference: {fileID: 0}
    - target: {fileID: -8679921383154817045, guid: 6c8896ee583b8fa41820cfb7ea943ce7,
        type: 3}
      propertyPath: m_LocalRotation.y
      value: 0
      objectReference: {fileID: 0}
    - target: {fileID: -8679921383154817045, guid: 6c8896ee583b8fa41820cfb7ea943ce7,
        type: 3}
      propertyPath: m_LocalRotation.z
      value: 0
      objectReference: {fileID: 0}
    - target: {fileID: -8679921383154817045, guid: 6c8896ee583b8fa41820cfb7ea943ce7,
        type: 3}
      propertyPath: m_LocalEulerAnglesHint.x
      value: -90
      objectReference: {fileID: 0}
    - target: {fileID: -8679921383154817045, guid: 6c8896ee583b8fa41820cfb7ea943ce7,
        type: 3}
      propertyPath: m_LocalEulerAnglesHint.y
      value: 0
      objectReference: {fileID: 0}
    - target: {fileID: -8679921383154817045, guid: 6c8896ee583b8fa41820cfb7ea943ce7,
        type: 3}
      propertyPath: m_LocalEulerAnglesHint.z
      value: 0
      objectReference: {fileID: 0}
    - target: {fileID: -8679921383154817045, guid: 6c8896ee583b8fa41820cfb7ea943ce7,
        type: 3}
      propertyPath: m_ConstrainProportionsScale
      value: 1
      objectReference: {fileID: 0}
    - target: {fileID: 919132149155446097, guid: 6c8896ee583b8fa41820cfb7ea943ce7,
        type: 3}
      propertyPath: m_Name
      value: ball cactus 2
      objectReference: {fileID: 0}
    - target: {fileID: 1987354598965924570, guid: 6c8896ee583b8fa41820cfb7ea943ce7,
        type: 3}
      propertyPath: m_Materials.Array.data[0]
      value: 
      objectReference: {fileID: 2100000, guid: ba9d123314d491f4b97b0c8fa3086ae7, type: 2}
    m_RemovedComponents: []
    m_RemovedGameObjects: []
    m_AddedGameObjects: []
    m_AddedComponents: []
  m_SourcePrefab: {fileID: 100100000, guid: 6c8896ee583b8fa41820cfb7ea943ce7, type: 3}
--- !u!4 &5102665896210596778 stripped
Transform:
  m_CorrespondingSourceObject: {fileID: -8679921383154817045, guid: 6c8896ee583b8fa41820cfb7ea943ce7,
    type: 3}
  m_PrefabInstance: {fileID: 4709347826086143041}
  m_PrefabAsset: {fileID: 0}
